package rules.loanExtension;
import vchernyak.mybank.dao.entity.Loan;
import vchernyak.mybank.rules.data.fact.impl.LoanFact;
dialect  "mvel"

/**
 * API that describes additional input/output for loan extension
 * Should not be changed without appropriate changes in code.
 */

//Declaration of all neccessary input to base decision on
declare Input
    loan : Loan                     //taken by name "loan"
    ip : String                     //taken by name "ip"
end

//Query for new loan object result
query "loan"
    LoanFact(name == "new extended loan", loan : value)
end