package rules.loanExtension;
import vchernyak.mybank.rules.data.fact.impl.BooleanFact;
import vchernyak.mybank.rules.data.fact.impl.NumberFact;
import vchernyak.mybank.rules.data.fact.impl.StringFact;
dialect  "mvel"

/**
 * Filling defaults
 * Base salience starting from 30.
 */

//Inserts defaults
rule  "Loan Extension: insert defaults" salience (31)
    when
        not BooleanFact(name == "defaults inserted")
    then
        insert(new BooleanFact("defaults inserted", true))
        insert(new NumberFact("risk increase factor", 1.5))
        insert(new NumberFact("extension days", 7))
end

//Fills and inserts Input into working memory
rule  "Loan Extension: fill input" salience (30)
    when
        not Input()
        $loan : LoanFact(name == "loan", value != null)
        $ip : StringFact(name == "ip", value != null)
    then
        Input input = new Input();
        input.setLoan($loan.getValue());
        input.setIp($ip.getValue());

        insert(input);
end
